{
  "runtimeTarget": {
    "name": ".NETCoreApp,Version=v3.1",
    "signature": ""
  },
  "compilationOptions": {},
  "targets": {
    ".NETCoreApp,Version=v3.1": {
      "CentreDeFormacio/1.0.0": {
        "dependencies": {
          "Aspose.PDF": "20.8.0",
          "Comunications": "1.0.0",
          "CsQuery": "1.3.4",
          "DotNetBrowser": "2.2.0",
          "GemBox.Document": "33.0.1017",
          "HtmlAgilityPack": "1.11.24",
          "IKVM": "8.1.5717",
          "IronPdf": "2020.10.3.3",
          "NReco.PdfGenerator": "1.2.0",
          "PDFsharp": "1.50.5147",
          "Spire.PDF": "6.8.5",
          "Syncfusion.Pdf.Wpf": "18.2.0.54",
          "Syncfusion.ReportWriter.Base": "18.2.0.54",
          "Syncfusion.Shared.WPF": "18.2.0.54",
          "Syncfusion.Xamarin.Compression": "18.2.0.54",
          "System.Drawing.Common": "4.7.0",
          "ceTe.DynamicPDF.CoreSuite.NET": "11.1.0-Beta",
          "iTextSharp": "5.5.13.1",
          "mongocsharpdriver": "2.11.0",
          "sautinsoft.document": "4.5.6.17"
        },
        "runtime": {
          "CentreDeFormacio.dll": {}
        }
      },
      "Aspose.PDF/20.8.0": {
        "dependencies": {
          "Microsoft.Extensions.DependencyModel": "2.0.4",
          "System.Diagnostics.PerformanceCounter": "4.5.0",
          "System.Drawing.Common": "4.7.0",
          "System.Security.Permissions": "4.5.0",
          "System.Text.Encoding.CodePages": "4.7.0"
        },
        "runtime": {
          "lib/netstandard2.1/Aspose.Pdf.dll": {
            "assemblyVersion": "20.8.0.0",
            "fileVersion": "20.8.0.0"
          }
        }
      },
      "ceTe.DynamicPDF.CoreSuite.NET/11.1.0-Beta": {
        "dependencies": {
          "System.Security.Cryptography.Pkcs": "4.7.0"
        },
        "runtime": {
          "lib/netcoreapp30/DynamicPDF.NetCore30.dll": {
            "assemblyVersion": "11.1.0.41895",
            "fileVersion": "11.1.0.41895"
          }
        }
      },
      "CsQuery/1.3.4": {
        "runtime": {
          "lib/net40/CsQuery.dll": {
            "assemblyVersion": "1.3.3.249",
            "fileVersion": "1.3.3.249"
          }
        }
      },
      "DnsClient/1.3.1": {
        "runtime": {
          "lib/netstandard2.1/DnsClient.dll": {
            "assemblyVersion": "1.3.1.0",
            "fileVersion": "1.3.1.0"
          }
        }
      },
      "DotNetBrowser/2.2.0": {
        "dependencies": {
          "DotNetBrowser.Chromium.Win-x64": "2.2.0",
          "DotNetBrowser.Chromium.Win-x86": "2.2.0",
          "protobuf-net": "2.4.0"
        },
        "runtime": {
          "lib/netstandard2.0/DotNetBrowser.Core.dll": {
            "assemblyVersion": "2.2.0.1285",
            "fileVersion": "2.2.0.1285"
          },
          "lib/netstandard2.0/DotNetBrowser.Logging.dll": {
            "assemblyVersion": "2.2.0.1285",
            "fileVersion": "2.2.0.1285"
          },
          "lib/netstandard2.0/DotNetBrowser.dll": {
            "assemblyVersion": "2.2.0.1285",
            "fileVersion": "2.2.0.1285"
          }
        }
      },
      "DotNetBrowser.Chromium.Win-x64/2.2.0": {
        "runtime": {
          "lib/netstandard2.0/DotNetBrowser.Chromium.Win-x64.dll": {
            "assemblyVersion": "2.2.0.1285",
            "fileVersion": "2.2.0.1285"
          }
        }
      },
      "DotNetBrowser.Chromium.Win-x86/2.2.0": {
        "runtime": {
          "lib/netstandard2.0/DotNetBrowser.Chromium.Win-x86.dll": {
            "assemblyVersion": "2.2.0.1285",
            "fileVersion": "2.2.0.1285"
          }
        }
      },
      "GemBox.Document/33.0.1017": {
        "runtime": {
          "lib/netcoreapp3.0/GemBox.Document.dll": {
            "assemblyVersion": "33.0.0.1017",
            "fileVersion": "33.0.300.1017"
          }
        },
        "runtimeTargets": {
          "runtimes/unix/lib/netcoreapp3.0/GemBox.Document.dll": {
            "rid": "unix",
            "assetType": "runtime",
            "assemblyVersion": "33.0.0.1017",
            "fileVersion": "33.0.200.1017"
          }
        }
      },
      "HtmlAgilityPack/1.11.24": {
        "runtime": {
          "lib/netstandard2.0/HtmlAgilityPack.dll": {
            "assemblyVersion": "1.11.24.0",
            "fileVersion": "1.11.24.0"
          }
        }
      },
      "IKVM/8.1.5717": {
        "runtime": {
          "lib/IKVM.AWT.WinForms.dll": {
            "assemblyVersion": "8.1.5717.0",
            "fileVersion": "8.1.5717.0"
          },
          "lib/IKVM.OpenJDK.Beans.dll": {
            "assemblyVersion": "8.1.5717.0",
            "fileVersion": "8.1.5717.0"
          },
          "lib/IKVM.OpenJDK.Charsets.dll": {
            "assemblyVersion": "8.1.5717.0",
            "fileVersion": "8.1.5717.0"
          },
          "lib/IKVM.OpenJDK.Cldrdata.dll": {
            "assemblyVersion": "8.1.5717.0",
            "fileVersion": "8.1.5717.0"
          },
          "lib/IKVM.OpenJDK.Corba.dll": {
            "assemblyVersion": "8.1.5717.0",
            "fileVersion": "8.1.5717.0"
          },
          "lib/IKVM.OpenJDK.Core.dll": {
            "assemblyVersion": "8.1.5717.0",
            "fileVersion": "8.1.5717.0"
          },
          "lib/IKVM.OpenJDK.Jdbc.dll": {
            "assemblyVersion": "8.1.5717.0",
            "fileVersion": "8.1.5717.0"
          },
          "lib/IKVM.OpenJDK.Localedata.dll": {
            "assemblyVersion": "8.1.5717.0",
            "fileVersion": "8.1.5717.0"
          },
          "lib/IKVM.OpenJDK.Management.dll": {
            "assemblyVersion": "8.1.5717.0",
            "fileVersion": "8.1.5717.0"
          },
          "lib/IKVM.OpenJDK.Media.dll": {
            "assemblyVersion": "8.1.5717.0",
            "fileVersion": "8.1.5717.0"
          },
          "lib/IKVM.OpenJDK.Misc.dll": {
            "assemblyVersion": "8.1.5717.0",
            "fileVersion": "8.1.5717.0"
          },
          "lib/IKVM.OpenJDK.Naming.dll": {
            "assemblyVersion": "8.1.5717.0",
            "fileVersion": "8.1.5717.0"
          },
          "lib/IKVM.OpenJDK.Nashorn.dll": {
            "assemblyVersion": "8.1.5717.0",
            "fileVersion": "8.1.5717.0"
          },
          "lib/IKVM.OpenJDK.Remoting.dll": {
            "assemblyVersion": "8.1.5717.0",
            "fileVersion": "8.1.5717.0"
          },
          "lib/IKVM.OpenJDK.Security.dll": {
            "assemblyVersion": "8.1.5717.0",
            "fileVersion": "8.1.5717.0"
          },
          "lib/IKVM.OpenJDK.SwingAWT.dll": {
            "assemblyVersion": "8.1.5717.0",
            "fileVersion": "8.1.5717.0"
          },
          "lib/IKVM.OpenJDK.Text.dll": {
            "assemblyVersion": "8.1.5717.0",
            "fileVersion": "8.1.5717.0"
          },
          "lib/IKVM.OpenJDK.Tools.dll": {
            "assemblyVersion": "8.1.5717.0",
            "fileVersion": "8.1.5717.0"
          },
          "lib/IKVM.OpenJDK.Util.dll": {
            "assemblyVersion": "8.1.5717.0",
            "fileVersion": "8.1.5717.0"
          },
          "lib/IKVM.OpenJDK.XML.API.dll": {
            "assemblyVersion": "8.1.5717.0",
            "fileVersion": "8.1.5717.0"
          },
          "lib/IKVM.OpenJDK.XML.Bind.dll": {
            "assemblyVersion": "8.1.5717.0",
            "fileVersion": "8.1.5717.0"
          },
          "lib/IKVM.OpenJDK.XML.Crypto.dll": {
            "assemblyVersion": "8.1.5717.0",
            "fileVersion": "8.1.5717.0"
          },
          "lib/IKVM.OpenJDK.XML.Parse.dll": {
            "assemblyVersion": "8.1.5717.0",
            "fileVersion": "8.1.5717.0"
          },
          "lib/IKVM.OpenJDK.XML.Transform.dll": {
            "assemblyVersion": "8.1.5717.0",
            "fileVersion": "8.1.5717.0"
          },
          "lib/IKVM.OpenJDK.XML.WebServices.dll": {
            "assemblyVersion": "8.1.5717.0",
            "fileVersion": "8.1.5717.0"
          },
          "lib/IKVM.OpenJDK.XML.XPath.dll": {
            "assemblyVersion": "8.1.5717.0",
            "fileVersion": "8.1.5717.0"
          },
          "lib/IKVM.Runtime.JNI.dll": {
            "assemblyVersion": "8.1.5717.0",
            "fileVersion": "8.1.5717.0"
          },
          "lib/IKVM.Runtime.dll": {
            "assemblyVersion": "8.1.5717.0",
            "fileVersion": "8.1.5717.0"
          }
        }
      },
      "Iron.Assets.Rendering.Universal/20.0.0": {
        "runtime": {
          "lib/netstandard2.0/IronPdf.Assets.Rendering.Universal.dll": {
            "assemblyVersion": "18.0.0.0",
            "fileVersion": "18.0.0.0"
          }
        }
      },
      "IronPdf/2020.10.3.3": {
        "dependencies": {
          "Iron.Assets.Rendering.Universal": "20.0.0",
          "System.Drawing.Common": "4.7.0"
        },
        "runtime": {
          "lib/netstandard2.0/IronPdf.dll": {
            "assemblyVersion": "2020.10.3.0",
            "fileVersion": "2020.10.3.0"
          }
        }
      },
      "iTextSharp/5.5.13.1": {
        "runtime": {
          "lib/itextsharp.dll": {
            "assemblyVersion": "5.5.13.1",
            "fileVersion": "5.5.13.1"
          }
        }
      },
      "Microsoft.CSharp/4.0.1": {
        "dependencies": {
          "System.Collections": "4.3.0",
          "System.Diagnostics.Debug": "4.3.0",
          "System.Dynamic.Runtime": "4.0.11",
          "System.Globalization": "4.3.0",
          "System.Linq": "4.1.0",
          "System.Linq.Expressions": "4.1.0",
          "System.ObjectModel": "4.0.12",
          "System.Reflection": "4.3.0",
          "System.Reflection.Extensions": "4.0.1",
          "System.Reflection.Primitives": "4.3.0",
          "System.Reflection.TypeExtensions": "4.1.0",
          "System.Resources.ResourceManager": "4.3.0",
          "System.Runtime": "4.3.0",
          "System.Runtime.Extensions": "4.3.0",
          "System.Runtime.InteropServices": "4.3.0",
          "System.Threading": "4.3.0"
        }
      },
      "Microsoft.DotNet.PlatformAbstractions/2.0.4": {
        "dependencies": {
          "System.AppContext": "4.1.0",
          "System.Collections": "4.3.0",
          "System.IO": "4.3.0",
          "System.IO.FileSystem": "4.3.0",
          "System.Reflection.TypeExtensions": "4.1.0",
          "System.Runtime.Extensions": "4.3.0",
          "System.Runtime.InteropServices": "4.3.0",
          "System.Runtime.InteropServices.RuntimeInformation": "4.0.0"
        },
        "runtime": {
          "lib/netstandard1.3/Microsoft.DotNet.PlatformAbstractions.dll": {
            "assemblyVersion": "2.0.4.0",
            "fileVersion": "2.0.4.0"
          }
        }
      },
      "Microsoft.Extensions.DependencyModel/2.0.4": {
        "dependencies": {
          "Microsoft.DotNet.PlatformAbstractions": "2.0.4",
          "Newtonsoft.Json": "9.0.1",
          "System.Diagnostics.Debug": "4.3.0",
          "System.Dynamic.Runtime": "4.0.11",
          "System.Linq": "4.1.0"
        },
        "runtime": {
          "lib/netstandard1.6/Microsoft.Extensions.DependencyModel.dll": {
            "assemblyVersion": "2.0.4.0",
            "fileVersion": "2.0.4.0"
          }
        }
      },
      "Microsoft.NETCore.Platforms/3.1.0": {},
      "Microsoft.NETCore.Targets/1.1.0": {},
      "Microsoft.Win32.Registry/4.5.0": {
        "dependencies": {
          "System.Security.AccessControl": "4.5.0",
          "System.Security.Principal.Windows": "4.5.0"
        }
      },
      "Microsoft.Win32.SystemEvents/4.7.0": {
        "dependencies": {
          "Microsoft.NETCore.Platforms": "3.1.0"
        }
      },
      "mongocsharpdriver/2.11.0": {
        "dependencies": {
          "MongoDB.Bson": "2.11.3",
          "MongoDB.Driver": "2.11.3",
          "MongoDB.Driver.Core": "2.11.3"
        },
        "runtime": {
          "lib/netstandard2.0/MongoDB.Driver.Legacy.dll": {
            "assemblyVersion": "2.11.0.0",
            "fileVersion": "2.11.0.0"
          }
        }
      },
      "MongoDB.Bson/2.11.3": {
        "runtime": {
          "lib/netstandard2.0/MongoDB.Bson.dll": {
            "assemblyVersion": "2.11.3.0",
            "fileVersion": "2.11.3.0"
          }
        }
      },
      "MongoDB.Driver/2.11.3": {
        "dependencies": {
          "MongoDB.Bson": "2.11.3",
          "MongoDB.Driver.Core": "2.11.3",
          "MongoDB.Libmongocrypt": "1.0.0"
        },
        "runtime": {
          "lib/netstandard2.0/MongoDB.Driver.dll": {
            "assemblyVersion": "2.11.3.0",
            "fileVersion": "2.11.3.0"
          }
        }
      },
      "MongoDB.Driver.Core/2.11.3": {
        "dependencies": {
          "DnsClient": "1.3.1",
          "MongoDB.Bson": "2.11.3",
          "MongoDB.Libmongocrypt": "1.0.0",
          "SharpCompress": "0.23.0",
          "System.Buffers": "4.4.0"
        },
        "runtime": {
          "lib/netstandard2.0/MongoDB.Driver.Core.dll": {
            "assemblyVersion": "2.11.3.0",
            "fileVersion": "2.11.3.0"
          }
        },
        "runtimeTargets": {
          "runtimes/win/native/libzstd.dll": {
            "rid": "win",
            "assetType": "native",
            "fileVersion": "0.0.0.0"
          },
          "runtimes/win/native/snappy32.dll": {
            "rid": "win",
            "assetType": "native",
            "fileVersion": "1.1.1.7"
          },
          "runtimes/win/native/snappy64.dll": {
            "rid": "win",
            "assetType": "native",
            "fileVersion": "1.1.1.7"
          }
        }
      },
      "MongoDB.Libmongocrypt/1.0.0": {
        "runtime": {
          "lib/netstandard1.5/MongoDB.Libmongocrypt.dll": {
            "assemblyVersion": "1.0.0.0",
            "fileVersion": "1.0.0.0"
          }
        }
      },
      "Newtonsoft.Json/9.0.1": {
        "dependencies": {
          "Microsoft.CSharp": "4.0.1",
          "System.Collections": "4.3.0",
          "System.Diagnostics.Debug": "4.3.0",
          "System.Dynamic.Runtime": "4.0.11",
          "System.Globalization": "4.3.0",
          "System.IO": "4.3.0",
          "System.Linq": "4.1.0",
          "System.Linq.Expressions": "4.1.0",
          "System.ObjectModel": "4.0.12",
          "System.Reflection": "4.3.0",
          "System.Reflection.Extensions": "4.0.1",
          "System.Resources.ResourceManager": "4.3.0",
          "System.Runtime": "4.3.0",
          "System.Runtime.Extensions": "4.3.0",
          "System.Runtime.Serialization.Primitives": "4.1.1",
          "System.Text.Encoding": "4.3.0",
          "System.Text.Encoding.Extensions": "4.3.0",
          "System.Text.RegularExpressions": "4.3.0",
          "System.Threading": "4.3.0",
          "System.Threading.Tasks": "4.3.0",
          "System.Xml.ReaderWriter": "4.3.0",
          "System.Xml.XDocument": "4.0.11"
        },
        "runtime": {
          "lib/netstandard1.0/Newtonsoft.Json.dll": {
            "assemblyVersion": "9.0.0.0",
            "fileVersion": "9.0.1.19813"
          }
        }
      },
      "NReco.PdfGenerator/1.2.0": {
        "runtime": {
          "lib/net45/NReco.PdfGenerator.dll": {
            "assemblyVersion": "1.2.0.0",
            "fileVersion": "1.2.0.0"
          }
        }
      },
      "PDFsharp/1.50.5147": {
        "runtime": {
          "lib/net20/PdfSharp.Charting.dll": {
            "assemblyVersion": "1.50.5147.0",
            "fileVersion": "1.50.5147.0"
          },
          "lib/net20/PdfSharp.dll": {
            "assemblyVersion": "1.50.5147.0",
            "fileVersion": "1.50.5147.0"
          }
        },
        "resources": {
          "lib/net20/de/PdfSharp.Charting.resources.dll": {
            "locale": "de"
          },
          "lib/net20/de/PdfSharp.resources.dll": {
            "locale": "de"
          }
        }
      },
      "protobuf-net/2.4.0": {
        "dependencies": {
          "System.ServiceModel.Primitives": "4.5.3"
        },
        "runtime": {
          "lib/netcoreapp2.1/protobuf-net.dll": {
            "assemblyVersion": "2.4.0.0",
            "fileVersion": "2.4.0.8641"
          }
        }
      },
      "runtime.native.System/4.0.0": {
        "dependencies": {
          "Microsoft.NETCore.Platforms": "3.1.0",
          "Microsoft.NETCore.Targets": "1.1.0"
        }
      },
      "sautinsoft.document/4.5.6.17": {
        "dependencies": {
          "System.Drawing.Common": "4.7.0",
          "System.IO.Packaging": "4.4.0",
          "System.Text.Encoding.CodePages": "4.7.0",
          "System.Xml.XPath.XmlDocument": "4.3.0"
        },
        "runtime": {
          "lib/netcoreapp3.1/SautinSoft.Document.dll": {
            "assemblyVersion": "4.5.6.17",
            "fileVersion": "4.5.6.17"
          }
        }
      },
      "SharpCompress/0.23.0": {
        "dependencies": {
          "System.Text.Encoding.CodePages": "4.7.0"
        },
        "runtime": {
          "lib/netstandard2.0/SharpCompress.dll": {
            "assemblyVersion": "0.23.0.0",
            "fileVersion": "0.23.0.0"
          }
        }
      },
      "Spire.PDF/6.8.5": {
        "dependencies": {
          "System.Drawing.Common": "4.7.0",
          "System.Text.Encoding.CodePages": "4.7.0"
        },
        "runtime": {
          "lib/netcoreapp3.0/Spire.License.dll": {
            "assemblyVersion": "1.3.8.320",
            "fileVersion": "1.3.8.320"
          },
          "lib/netcoreapp3.0/Spire.Pdf.dll": {
            "assemblyVersion": "6.8.5.0",
            "fileVersion": "6.8.5.2330"
          }
        }
      },
      "Syncfusion.Compression.Base/18.2.0.54": {
        "runtime": {
          "lib/netcoreapp3.1/Syncfusion.Compression.Base.dll": {
            "assemblyVersion": "18.2310.0.54",
            "fileVersion": "18.2310.0.54"
          }
        }
      },
      "Syncfusion.Licensing/18.2.0.54": {
        "runtime": {
          "lib/netcoreapp3.1/Syncfusion.Licensing.dll": {
            "assemblyVersion": "18.2.0.54",
            "fileVersion": "18.2.0.54"
          }
        }
      },
      "Syncfusion.Linq.Base/18.2.0.54": {
        "runtime": {
          "lib/netcoreapp3.1/Syncfusion.Linq.Base.dll": {
            "assemblyVersion": "18.2310.0.54",
            "fileVersion": "18.2310.0.54"
          }
        }
      },
      "Syncfusion.Pdf.Wpf/18.2.0.54": {
        "dependencies": {
          "Syncfusion.Compression.Base": "18.2.0.54",
          "Syncfusion.Licensing": "18.2.0.54"
        },
        "runtime": {
          "lib/netcoreapp3.1/Syncfusion.Pdf.Base.dll": {
            "assemblyVersion": "18.2310.0.54",
            "fileVersion": "18.2310.0.54"
          }
        }
      },
      "Syncfusion.ReportWriter.Base/18.2.0.54": {
        "dependencies": {
          "Syncfusion.Licensing": "18.2.0.54",
          "Syncfusion.Linq.Base": "18.2.0.54"
        },
        "runtime": {
          "lib/netcoreapp3.1/Syncfusion.DocIO.Base.dll": {
            "assemblyVersion": "18.2310.0.54",
            "fileVersion": "18.2310.0.54"
          },
          "lib/netcoreapp3.1/Syncfusion.OfficeChart.Base.dll": {
            "assemblyVersion": "18.2310.0.54",
            "fileVersion": "18.2310.0.54"
          },
          "lib/netcoreapp3.1/Syncfusion.ReportWriter.Base.dll": {
            "assemblyVersion": "18.2310.0.54",
            "fileVersion": "18.2310.0.54"
          },
          "lib/netcoreapp3.1/Syncfusion.XlsIO.Base.dll": {
            "assemblyVersion": "18.2310.0.54",
            "fileVersion": "18.2310.0.54"
          }
        }
      },
      "Syncfusion.Shared.WPF/18.2.0.54": {
        "dependencies": {
          "Syncfusion.Licensing": "18.2.0.54"
        },
        "runtime": {
          "lib/netcoreapp3.1/Syncfusion.Shared.WPF.dll": {
            "assemblyVersion": "18.2310.0.54",
            "fileVersion": "18.2310.0.54"
          }
        }
      },
      "Syncfusion.Xamarin.Compression/18.2.0.54": {
        "runtime": {
          "lib/netstandard2.0/Syncfusion.Compression.Portable.dll": {
            "assemblyVersion": "18.2451.0.54",
            "fileVersion": "18.2451.0.54"
          }
        }
      },
      "System.AppContext/4.1.0": {
        "dependencies": {
          "System.Runtime": "4.3.0"
        }
      },
      "System.Buffers/4.4.0": {},
      "System.Collections/4.3.0": {
        "dependencies": {
          "Microsoft.NETCore.Platforms": "3.1.0",
          "Microsoft.NETCore.Targets": "1.1.0",
          "System.Runtime": "4.3.0"
        }
      },
      "System.Configuration.ConfigurationManager/4.5.0": {
        "dependencies": {
          "System.Security.Cryptography.ProtectedData": "4.5.0",
          "System.Security.Permissions": "4.5.0"
        }
      },
      "System.Diagnostics.Debug/4.3.0": {
        "dependencies": {
          "Microsoft.NETCore.Platforms": "3.1.0",
          "Microsoft.NETCore.Targets": "1.1.0",
          "System.Runtime": "4.3.0"
        }
      },
      "System.Diagnostics.PerformanceCounter/4.5.0": {
        "dependencies": {
          "Microsoft.NETCore.Platforms": "3.1.0",
          "Microsoft.Win32.Registry": "4.5.0",
          "System.Configuration.ConfigurationManager": "4.5.0",
          "System.Security.Principal.Windows": "4.5.0"
        }
      },
      "System.Diagnostics.Tools/4.0.1": {
        "dependencies": {
          "Microsoft.NETCore.Platforms": "3.1.0",
          "Microsoft.NETCore.Targets": "1.1.0",
          "System.Runtime": "4.3.0"
        }
      },
      "System.Drawing.Common/4.7.0": {
        "dependencies": {
          "Microsoft.NETCore.Platforms": "3.1.0",
          "Microsoft.Win32.SystemEvents": "4.7.0"
        }
      },
      "System.Dynamic.Runtime/4.0.11": {
        "dependencies": {
          "System.Collections": "4.3.0",
          "System.Diagnostics.Debug": "4.3.0",
          "System.Globalization": "4.3.0",
          "System.Linq": "4.1.0",
          "System.Linq.Expressions": "4.1.0",
          "System.ObjectModel": "4.0.12",
          "System.Reflection": "4.3.0",
          "System.Reflection.Emit": "4.0.1",
          "System.Reflection.Emit.ILGeneration": "4.0.1",
          "System.Reflection.Primitives": "4.3.0",
          "System.Reflection.TypeExtensions": "4.1.0",
          "System.Resources.ResourceManager": "4.3.0",
          "System.Runtime": "4.3.0",
          "System.Runtime.Extensions": "4.3.0",
          "System.Threading": "4.3.0"
        }
      },
      "System.Globalization/4.3.0": {
        "dependencies": {
          "Microsoft.NETCore.Platforms": "3.1.0",
          "Microsoft.NETCore.Targets": "1.1.0",
          "System.Runtime": "4.3.0"
        }
      },
      "System.IO/4.3.0": {
        "dependencies": {
          "Microsoft.NETCore.Platforms": "3.1.0",
          "Microsoft.NETCore.Targets": "1.1.0",
          "System.Runtime": "4.3.0",
          "System.Text.Encoding": "4.3.0",
          "System.Threading.Tasks": "4.3.0"
        }
      },
      "System.IO.FileSystem/4.3.0": {
        "dependencies": {
          "Microsoft.NETCore.Platforms": "3.1.0",
          "Microsoft.NETCore.Targets": "1.1.0",
          "System.IO": "4.3.0",
          "System.IO.FileSystem.Primitives": "4.3.0",
          "System.Runtime": "4.3.0",
          "System.Runtime.Handles": "4.3.0",
          "System.Text.Encoding": "4.3.0",
          "System.Threading.Tasks": "4.3.0"
        }
      },
      "System.IO.FileSystem.Primitives/4.3.0": {
        "dependencies": {
          "System.Runtime": "4.3.0"
        }
      },
      "System.IO.Packaging/4.4.0": {},
      "System.Linq/4.1.0": {
        "dependencies": {
          "System.Collections": "4.3.0",
          "System.Diagnostics.Debug": "4.3.0",
          "System.Resources.ResourceManager": "4.3.0",
          "System.Runtime": "4.3.0",
          "System.Runtime.Extensions": "4.3.0"
        }
      },
      "System.Linq.Expressions/4.1.0": {
        "dependencies": {
          "System.Collections": "4.3.0",
          "System.Diagnostics.Debug": "4.3.0",
          "System.Globalization": "4.3.0",
          "System.IO": "4.3.0",
          "System.Linq": "4.1.0",
          "System.ObjectModel": "4.0.12",
          "System.Reflection": "4.3.0",
          "System.Reflection.Emit": "4.0.1",
          "System.Reflection.Emit.ILGeneration": "4.0.1",
          "System.Reflection.Emit.Lightweight": "4.0.1",
          "System.Reflection.Extensions": "4.0.1",
          "System.Reflection.Primitives": "4.3.0",
          "System.Reflection.TypeExtensions": "4.1.0",
          "System.Resources.ResourceManager": "4.3.0",
          "System.Runtime": "4.3.0",
          "System.Runtime.Extensions": "4.3.0",
          "System.Threading": "4.3.0"
        }
      },
      "System.ObjectModel/4.0.12": {
        "dependencies": {
          "System.Collections": "4.3.0",
          "System.Diagnostics.Debug": "4.3.0",
          "System.Resources.ResourceManager": "4.3.0",
          "System.Runtime": "4.3.0",
          "System.Threading": "4.3.0"
        }
      },
      "System.Private.ServiceModel/4.5.3": {
        "dependencies": {
          "Microsoft.NETCore.Platforms": "3.1.0",
          "System.Reflection.DispatchProxy": "4.5.0",
          "System.Security.Principal.Windows": "4.5.0"
        },
        "runtimeTargets": {
          "runtimes/unix/lib/netstandard2.0/System.Private.ServiceModel.dll": {
            "rid": "unix",
            "assetType": "runtime",
            "assemblyVersion": "4.5.0.3",
            "fileVersion": "4.6.26720.1"
          },
          "runtimes/win/lib/netstandard2.0/System.Private.ServiceModel.dll": {
            "rid": "win",
            "assetType": "runtime",
            "assemblyVersion": "4.5.0.3",
            "fileVersion": "4.6.26720.1"
          }
        }
      },
      "System.Reflection/4.3.0": {
        "dependencies": {
          "Microsoft.NETCore.Platforms": "3.1.0",
          "Microsoft.NETCore.Targets": "1.1.0",
          "System.IO": "4.3.0",
          "System.Reflection.Primitives": "4.3.0",
          "System.Runtime": "4.3.0"
        }
      },
      "System.Reflection.DispatchProxy/4.5.0": {},
      "System.Reflection.Emit/4.0.1": {
        "dependencies": {
          "System.IO": "4.3.0",
          "System.Reflection": "4.3.0",
          "System.Reflection.Emit.ILGeneration": "4.0.1",
          "System.Reflection.Primitives": "4.3.0",
          "System.Runtime": "4.3.0"
        }
      },
      "System.Reflection.Emit.ILGeneration/4.0.1": {
        "dependencies": {
          "System.Reflection": "4.3.0",
          "System.Reflection.Primitives": "4.3.0",
          "System.Runtime": "4.3.0"
        }
      },
      "System.Reflection.Emit.Lightweight/4.0.1": {
        "dependencies": {
          "System.Reflection": "4.3.0",
          "System.Reflection.Emit.ILGeneration": "4.0.1",
          "System.Reflection.Primitives": "4.3.0",
          "System.Runtime": "4.3.0"
        }
      },
      "System.Reflection.Extensions/4.0.1": {
        "dependencies": {
          "Microsoft.NETCore.Platforms": "3.1.0",
          "Microsoft.NETCore.Targets": "1.1.0",
          "System.Reflection": "4.3.0",
          "System.Runtime": "4.3.0"
        }
      },
      "System.Reflection.Primitives/4.3.0": {
        "dependencies": {
          "Microsoft.NETCore.Platforms": "3.1.0",
          "Microsoft.NETCore.Targets": "1.1.0",
          "System.Runtime": "4.3.0"
        }
      },
      "System.Reflection.TypeExtensions/4.1.0": {
        "dependencies": {
          "System.Reflection": "4.3.0",
          "System.Runtime": "4.3.0"
        }
      },
      "System.Resources.ResourceManager/4.3.0": {
        "dependencies": {
          "Microsoft.NETCore.Platforms": "3.1.0",
          "Microsoft.NETCore.Targets": "1.1.0",
          "System.Globalization": "4.3.0",
          "System.Reflection": "4.3.0",
          "System.Runtime": "4.3.0"
        }
      },
      "System.Runtime/4.3.0": {
        "dependencies": {
          "Microsoft.NETCore.Platforms": "3.1.0",
          "Microsoft.NETCore.Targets": "1.1.0"
        }
      },
      "System.Runtime.Extensions/4.3.0": {
        "dependencies": {
          "Microsoft.NETCore.Platforms": "3.1.0",
          "Microsoft.NETCore.Targets": "1.1.0",
          "System.Runtime": "4.3.0"
        }
      },
      "System.Runtime.Handles/4.3.0": {
        "dependencies": {
          "Microsoft.NETCore.Platforms": "3.1.0",
          "Microsoft.NETCore.Targets": "1.1.0",
          "System.Runtime": "4.3.0"
        }
      },
      "System.Runtime.InteropServices/4.3.0": {
        "dependencies": {
          "Microsoft.NETCore.Platforms": "3.1.0",
          "Microsoft.NETCore.Targets": "1.1.0",
          "System.Reflection": "4.3.0",
          "System.Reflection.Primitives": "4.3.0",
          "System.Runtime": "4.3.0",
          "System.Runtime.Handles": "4.3.0"
        }
      },
      "System.Runtime.InteropServices.RuntimeInformation/4.0.0": {
        "dependencies": {
          "Microsoft.NETCore.Platforms": "3.1.0",
          "System.Reflection": "4.3.0",
          "System.Resources.ResourceManager": "4.3.0",
          "System.Runtime": "4.3.0",
          "System.Runtime.InteropServices": "4.3.0",
          "System.Threading": "4.3.0",
          "runtime.native.System": "4.0.0"
        }
      },
      "System.Runtime.Serialization.Primitives/4.1.1": {
        "dependencies": {
          "System.Resources.ResourceManager": "4.3.0",
          "System.Runtime": "4.3.0"
        }
      },
      "System.Security.AccessControl/4.5.0": {
        "dependencies": {
          "Microsoft.NETCore.Platforms": "3.1.0",
          "System.Security.Principal.Windows": "4.5.0"
        }
      },
      "System.Security.Cryptography.Cng/4.7.0": {},
      "System.Security.Cryptography.Pkcs/4.7.0": {
        "dependencies": {
          "System.Security.Cryptography.Cng": "4.7.0"
        }
      },
      "System.Security.Cryptography.ProtectedData/4.5.0": {},
      "System.Security.Permissions/4.5.0": {
        "dependencies": {
          "System.Security.AccessControl": "4.5.0"
        }
      },
      "System.Security.Principal.Windows/4.5.0": {
        "dependencies": {
          "Microsoft.NETCore.Platforms": "3.1.0"
        }
      },
      "System.ServiceModel.Primitives/4.5.3": {
        "dependencies": {
          "System.Private.ServiceModel": "4.5.3"
        },
        "runtime": {
          "lib/netstandard2.0/System.ServiceModel.Primitives.dll": {
            "assemblyVersion": "4.5.0.3",
            "fileVersion": "4.6.26720.1"
          },
          "lib/netstandard2.0/System.ServiceModel.dll": {
            "assemblyVersion": "4.0.0.0",
            "fileVersion": "4.6.26720.1"
          }
        }
      },
      "System.Text.Encoding/4.3.0": {
        "dependencies": {
          "Microsoft.NETCore.Platforms": "3.1.0",
          "Microsoft.NETCore.Targets": "1.1.0",
          "System.Runtime": "4.3.0"
        }
      },
      "System.Text.Encoding.CodePages/4.7.0": {
        "dependencies": {
          "Microsoft.NETCore.Platforms": "3.1.0"
        }
      },
      "System.Text.Encoding.Extensions/4.3.0": {
        "dependencies": {
          "Microsoft.NETCore.Platforms": "3.1.0",
          "Microsoft.NETCore.Targets": "1.1.0",
          "System.Runtime": "4.3.0",
          "System.Text.Encoding": "4.3.0"
        }
      },
      "System.Text.RegularExpressions/4.3.0": {
        "dependencies": {
          "System.Runtime": "4.3.0"
        }
      },
      "System.Threading/4.3.0": {
        "dependencies": {
          "System.Runtime": "4.3.0",
          "System.Threading.Tasks": "4.3.0"
        }
      },
      "System.Threading.Tasks/4.3.0": {
        "dependencies": {
          "Microsoft.NETCore.Platforms": "3.1.0",
          "Microsoft.NETCore.Targets": "1.1.0",
          "System.Runtime": "4.3.0"
        }
      },
      "System.Threading.Tasks.Extensions/4.3.0": {
        "dependencies": {
          "System.Collections": "4.3.0",
          "System.Runtime": "4.3.0",
          "System.Threading.Tasks": "4.3.0"
        }
      },
      "System.Xml.ReaderWriter/4.3.0": {
        "dependencies": {
          "System.Collections": "4.3.0",
          "System.Diagnostics.Debug": "4.3.0",
          "System.Globalization": "4.3.0",
          "System.IO": "4.3.0",
          "System.IO.FileSystem": "4.3.0",
          "System.IO.FileSystem.Primitives": "4.3.0",
          "System.Resources.ResourceManager": "4.3.0",
          "System.Runtime": "4.3.0",
          "System.Runtime.Extensions": "4.3.0",
          "System.Runtime.InteropServices": "4.3.0",
          "System.Text.Encoding": "4.3.0",
          "System.Text.Encoding.Extensions": "4.3.0",
          "System.Text.RegularExpressions": "4.3.0",
          "System.Threading.Tasks": "4.3.0",
          "System.Threading.Tasks.Extensions": "4.3.0"
        }
      },
      "System.Xml.XDocument/4.0.11": {
        "dependencies": {
          "System.Collections": "4.3.0",
          "System.Diagnostics.Debug": "4.3.0",
          "System.Diagnostics.Tools": "4.0.1",
          "System.Globalization": "4.3.0",
          "System.IO": "4.3.0",
          "System.Reflection": "4.3.0",
          "System.Resources.ResourceManager": "4.3.0",
          "System.Runtime": "4.3.0",
          "System.Runtime.Extensions": "4.3.0",
          "System.Text.Encoding": "4.3.0",
          "System.Threading": "4.3.0",
          "System.Xml.ReaderWriter": "4.3.0"
        }
      },
      "System.Xml.XmlDocument/4.3.0": {
        "dependencies": {
          "System.Collections": "4.3.0",
          "System.Diagnostics.Debug": "4.3.0",
          "System.Globalization": "4.3.0",
          "System.IO": "4.3.0",
          "System.Resources.ResourceManager": "4.3.0",
          "System.Runtime": "4.3.0",
          "System.Runtime.Extensions": "4.3.0",
          "System.Text.Encoding": "4.3.0",
          "System.Threading": "4.3.0",
          "System.Xml.ReaderWriter": "4.3.0"
        }
      },
      "System.Xml.XPath/4.3.0": {
        "dependencies": {
          "System.Collections": "4.3.0",
          "System.Diagnostics.Debug": "4.3.0",
          "System.Globalization": "4.3.0",
          "System.IO": "4.3.0",
          "System.Resources.ResourceManager": "4.3.0",
          "System.Runtime": "4.3.0",
          "System.Runtime.Extensions": "4.3.0",
          "System.Threading": "4.3.0",
          "System.Xml.ReaderWriter": "4.3.0"
        }
      },
      "System.Xml.XPath.XmlDocument/4.3.0": {
        "dependencies": {
          "System.Collections": "4.3.0",
          "System.Globalization": "4.3.0",
          "System.IO": "4.3.0",
          "System.Resources.ResourceManager": "4.3.0",
          "System.Runtime": "4.3.0",
          "System.Runtime.Extensions": "4.3.0",
          "System.Threading": "4.3.0",
          "System.Xml.ReaderWriter": "4.3.0",
          "System.Xml.XPath": "4.3.0",
          "System.Xml.XmlDocument": "4.3.0"
        },
        "runtime": {
          "lib/netstandard1.3/System.Xml.XPath.XmlDocument.dll": {
            "assemblyVersion": "4.0.2.0",
            "fileVersion": "4.6.24705.1"
          }
        }
      },
      "Comunications/1.0.0": {
        "dependencies": {
          "MongoDB.Driver": "2.11.3"
        },
        "runtime": {
          "Comunications.dll": {}
        }
      }
    }
  },
  "libraries": {
    "CentreDeFormacio/1.0.0": {
      "type": "project",
      "serviceable": false,
      "sha512": ""
    },
    "Aspose.PDF/20.8.0": {
      "type": "package",
      "serviceable": true,
      "sha512": "sha512-ssTbL+7Q+KRU3CNS2K4CuzKSu+lxRccDm6d2ACAYRoQ0diHm4Ie4P+rNDdTJ463EuW1XM/56SjSRd7Rx5eVFXA==",
      "path": "aspose.pdf/20.8.0",
      "hashPath": "aspose.pdf.20.8.0.nupkg.sha512"
    },
    "ceTe.DynamicPDF.CoreSuite.NET/11.1.0-Beta": {
      "type": "package",
      "serviceable": true,
      "sha512": "sha512-Yv/I4RkbfvAQYhpFy54vPm/jD24N7uHOB9EGX9/lTkZFNoSwfa2awbGhNEDOsP5VRzewkRnko+h636EIF+DKCg==",
      "path": "cete.dynamicpdf.coresuite.net/11.1.0-beta",
      "hashPath": "cete.dynamicpdf.coresuite.net.11.1.0-beta.nupkg.sha512"
    },
    "CsQuery/1.3.4": {
      "type": "package",
      "serviceable": true,
      "sha512": "sha512-JQUAwMrxt4Wg5GVxT7kKNYQTi0+gvN+DdQ60C2ZVegzvftrOpJgVobazZn+/OcReiNLIGwJhMFSn0FskgqbOUQ==",
      "path": "csquery/1.3.4",
      "hashPath": "csquery.1.3.4.nupkg.sha512"
    },
    "DnsClient/1.3.1": {
      "type": "package",
      "serviceable": true,
      "sha512": "sha512-b9XczgqSjs3dd+OlV799jn+LXxdfirln1q36GKjs3QwWBhjhgIvgHLEG5s2VrBLcP4ogQjtA0PZ5+AmRJ35Vhg==",
      "path": "dnsclient/1.3.1",
      "hashPath": "dnsclient.1.3.1.nupkg.sha512"
    },
    "DotNetBrowser/2.2.0": {
      "type": "package",
      "serviceable": true,
      "sha512": "sha512-gjFSSaRSQ0oCJgBho4rv438WslyERm9zQiJuqYS5nEgIOaVIp2BlD9g+/PGqqDNuEfERZe5oR5kCAs6jzxENgA==",
      "path": "dotnetbrowser/2.2.0",
      "hashPath": "dotnetbrowser.2.2.0.nupkg.sha512"
    },
    "DotNetBrowser.Chromium.Win-x64/2.2.0": {
      "type": "package",
      "serviceable": true,
      "sha512": "sha512-o0UhSmEI/piptmqE3Sx2ApQlAuiXU9aEa5CD2Vg/C4UjTHgkyTVQJE3Y+GIZ33/CUjct0rxQ+bQDRTMiXYTE2A==",
      "path": "dotnetbrowser.chromium.win-x64/2.2.0",
      "hashPath": "dotnetbrowser.chromium.win-x64.2.2.0.nupkg.sha512"
    },
    "DotNetBrowser.Chromium.Win-x86/2.2.0": {
      "type": "package",
      "serviceable": true,
      "sha512": "sha512-fEQqR2EI6CuBdLATpoiW7tI5jH5uZAxyvWKzft/kH3mNVcW00Yo3aZ++OG7vqZ3R2LZPzpd8DmXv4HPYuWdykg==",
      "path": "dotnetbrowser.chromium.win-x86/2.2.0",
      "hashPath": "dotnetbrowser.chromium.win-x86.2.2.0.nupkg.sha512"
    },
    "GemBox.Document/33.0.1017": {
      "type": "package",
      "serviceable": true,
      "sha512": "sha512-lNKVv/pF9NvoZE8nQ28zTgTr4vi8C9lULVzu5j0UwoUz8VJt8fWSfVX/PjXVWBqn1RTX4gVTnH7KeGKk9VbKXQ==",
      "path": "gembox.document/33.0.1017",
      "hashPath": "gembox.document.33.0.1017.nupkg.sha512"
    },
    "HtmlAgilityPack/1.11.24": {
      "type": "package",
      "serviceable": true,
      "sha512": "sha512-DLcytINO8EfCdBgMGsaz8Tvdgu2Aewoo2XX7WfZuRG9cBQRtbm8JZ4/sMRtFvzehjdIDqubdlQb8TqNfjRMEWg==",
      "path": "htmlagilitypack/1.11.24",
      "hashPath": "htmlagilitypack.1.11.24.nupkg.sha512"
    },
    "IKVM/8.1.5717": {
      "type": "package",
      "serviceable": true,
      "sha512": "sha512-5olx8s2XYTfu6xu59ozQi9Jz5s6IHdJTK+XEFKpPxxVHoQWphb2G78btQTu1Z69I18n0tpcJ/EK5Dg2wmHJQIA==",
      "path": "ikvm/8.1.5717",
      "hashPath": "ikvm.8.1.5717.nupkg.sha512"
    },
    "Iron.Assets.Rendering.Universal/20.0.0": {
      "type": "package",
      "serviceable": true,
      "sha512": "sha512-Qjblh+MJmJKo3QL2sIl4wW0TgFmLH56/Yd/BOlTr63iX3dvQVoLi6QoiOgLUAJRr7/F04FZLksyMQZGZAdEWbg==",
      "path": "iron.assets.rendering.universal/20.0.0",
      "hashPath": "iron.assets.rendering.universal.20.0.0.nupkg.sha512"
    },
    "IronPdf/2020.10.3.3": {
      "type": "package",
      "serviceable": true,
      "sha512": "sha512-HPvsdZV3kftGsVtuxTxFys7dRE9PUcxIw+60cXtjHr0nPJGTPna1+y6HK2DR+4xgKj68nsSNqxfiVr74nMJYyg==",
      "path": "ironpdf/2020.10.3.3",
      "hashPath": "ironpdf.2020.10.3.3.nupkg.sha512"
    },
    "iTextSharp/5.5.13.1": {
      "type": "package",
      "serviceable": true,
      "sha512": "sha512-xqzsYEYW/nMDjCtAXM5cl9fWil/Ju3HEGbsmoTKtltJc3M/9HNJzg++bCIOHm5uZITvRmZJWMO+S2u1yNG0gQg==",
      "path": "itextsharp/5.5.13.1",
      "hashPath": "itextsharp.5.5.13.1.nupkg.sha512"
    },
    "Microsoft.CSharp/4.0.1": {
      "type": "package",
      "serviceable": true,
      "sha512": "sha512-17h8b5mXa87XYKrrVqdgZ38JefSUqLChUQpXgSnpzsM0nDOhE40FTeNWOJ/YmySGV6tG6T8+hjz6vxbknHJr6A==",
      "path": "microsoft.csharp/4.0.1",
      "hashPath": "microsoft.csharp.4.0.1.nupkg.sha512"
    },
    "Microsoft.DotNet.PlatformAbstractions/2.0.4": {
      "type": "package",
      "serviceable": true,
      "sha512": "sha512-2HjSGp63VCLQaeGadrLYR868g25mJHr+TFF81yWCaClzjUbU2vNDx6km7SUgPnoLVksE/1e7in88eh+oPtc4aQ==",
      "path": "microsoft.dotnet.platformabstractions/2.0.4",
      "hashPath": "microsoft.dotnet.platformabstractions.2.0.4.nupkg.sha512"
    },
    "Microsoft.Extensions.DependencyModel/2.0.4": {
      "type": "package",
      "serviceable": true,
      "sha512": "sha512-jnHAeijsfJFQXdXmnYK/NhQIkgBUeth//RZZkf0ldIKC+jARbf7YxbA9uTrs/EPhuQxHXaDxVuMyscgmL+UqfA==",
      "path": "microsoft.extensions.dependencymodel/2.0.4",
      "hashPath": "microsoft.extensions.dependencymodel.2.0.4.nupkg.sha512"
    },
    "Microsoft.NETCore.Platforms/3.1.0": {
      "type": "package",
      "serviceable": true,
      "sha512": "sha512-z7aeg8oHln2CuNulfhiLYxCVMPEwBl3rzicjvIX+4sUuCwvXw5oXQEtbiU2c0z4qYL5L3Kmx0mMA/+t/SbY67w==",
      "path": "microsoft.netcore.platforms/3.1.0",
      "hashPath": "microsoft.netcore.platforms.3.1.0.nupkg.sha512"
    },
    "Microsoft.NETCore.Targets/1.1.0": {
      "type": "package",
      "serviceable": true,
      "sha512": "sha512-aOZA3BWfz9RXjpzt0sRJJMjAscAUm3Hoa4UWAfceV9UTYxgwZ1lZt5nO2myFf+/jetYQo4uTP7zS8sJY67BBxg==",
      "path": "microsoft.netcore.targets/1.1.0",
      "hashPath": "microsoft.netcore.targets.1.1.0.nupkg.sha512"
    },
    "Microsoft.Win32.Registry/4.5.0": {
      "type": "package",
      "serviceable": true,
      "sha512": "sha512-+FWlwd//+Tt56316p00hVePBCouXyEzT86Jb3+AuRotTND0IYn0OO3obs1gnQEs/txEnt+rF2JBGLItTG+Be6A==",
      "path": "microsoft.win32.registry/4.5.0",
      "hashPath": "microsoft.win32.registry.4.5.0.nupkg.sha512"
    },
    "Microsoft.Win32.SystemEvents/4.7.0": {
      "type": "package",
      "serviceable": true,
      "sha512": "sha512-mtVirZr++rq+XCDITMUdnETD59XoeMxSpLRIII7JRI6Yj0LEDiO1pPn0ktlnIj12Ix8bfvQqQDMMIF9wC98oCA==",
      "path": "microsoft.win32.systemevents/4.7.0",
      "hashPath": "microsoft.win32.systemevents.4.7.0.nupkg.sha512"
    },
    "mongocsharpdriver/2.11.0": {
      "type": "package",
      "serviceable": true,
      "sha512": "sha512-eYvgHt8Q11P1aYUwuDPwAMH2E6PmPODexBNBmpxn7YH8OhrtT/cD+4hWOeYpZFmUpNzAJeBTsTUuRaJthnrEXA==",
      "path": "mongocsharpdriver/2.11.0",
      "hashPath": "mongocsharpdriver.2.11.0.nupkg.sha512"
    },
    "MongoDB.Bson/2.11.3": {
      "type": "package",
      "serviceable": true,
      "sha512": "sha512-pz8qtNVGLRRdDHmkRb5r/w4KYAnPClkGbQUPAuYudlMc2cd1HRIgIQMvY3lE5F0qFAhrceObbF57UHDwcSK5xg==",
      "path": "mongodb.bson/2.11.3",
      "hashPath": "mongodb.bson.2.11.3.nupkg.sha512"
    },
    "MongoDB.Driver/2.11.3": {
      "type": "package",
      "serviceable": true,
      "sha512": "sha512-SqDCN7a8ejLB9q1lowxf6v6mD2Q/1ZSle4aEfrB0ITs0+GxjMe2zNPzxIGgsIaux1HuAwAOEP4le9SaicSj+5g==",
      "path": "mongodb.driver/2.11.3",
      "hashPath": "mongodb.driver.2.11.3.nupkg.sha512"
    },
    "MongoDB.Driver.Core/2.11.3": {
      "type": "package",
      "serviceable": true,
      "sha512": "sha512-BKX6HlO2RuNO3lX4jjwdHChmjisgjm9BsSPAiUXTEG6SSithL1IxuM+xqVRG8e/w7Z6YWZdU2ruTUZM4BVyN3A==",
      "path": "mongodb.driver.core/2.11.3",
      "hashPath": "mongodb.driver.core.2.11.3.nupkg.sha512"
    },
    "MongoDB.Libmongocrypt/1.0.0": {
      "type": "package",
      "serviceable": true,
      "sha512": "sha512-zkcsra5riDiKXqOiCKskycakpbO5RYkuUWG+z2AZML3A4NShvAs/D3InwkxH0OcbjZQOWo763Hjdmhr0AaylcA==",
      "path": "mongodb.libmongocrypt/1.0.0",
      "hashPath": "mongodb.libmongocrypt.1.0.0.nupkg.sha512"
    },
    "Newtonsoft.Json/9.0.1": {
      "type": "package",
      "serviceable": true,
      "sha512": "sha512-U82mHQSKaIk+lpSVCbWYKNavmNH1i5xrExDEquU1i6I5pV6UMOqRnJRSlKO3cMPfcpp0RgDY+8jUXHdQ4IfXvw==",
      "path": "newtonsoft.json/9.0.1",
      "hashPath": "newtonsoft.json.9.0.1.nupkg.sha512"
    },
    "NReco.PdfGenerator/1.2.0": {
      "type": "package",
      "serviceable": true,
      "sha512": "sha512-PKgj7wJMpS2iLzlnk2LAn5SCyhP7otVu4kEs4Ba37vGq6nWd+aNegrUoaJQ7N2f4mvGSLVzjvV5GCi+OuCNLDw==",
      "path": "nreco.pdfgenerator/1.2.0",
      "hashPath": "nreco.pdfgenerator.1.2.0.nupkg.sha512"
    },
    "PDFsharp/1.50.5147": {
      "type": "package",
      "serviceable": true,
      "sha512": "sha512-vr5KBIqcXu2hqZ43UTwPR+jqHgMrT5tsPtJvEF+mORKoBNMh3bRWgAwic0U1sT2IVb4PR5m0GyQxnmCz8jBHWg==",
      "path": "pdfsharp/1.50.5147",
      "hashPath": "pdfsharp.1.50.5147.nupkg.sha512"
    },
    "protobuf-net/2.4.0": {
      "type": "package",
      "serviceable": true,
      "sha512": "sha512-j37MD1p1s9NdX8P5+IaY2J9p2382xiL1VP3mxYu0g+G/kf2YM2grFa1jJPO+0WDJNl1XhNPO0Q5yBEcbX77hBQ==",
      "path": "protobuf-net/2.4.0",
      "hashPath": "protobuf-net.2.4.0.nupkg.sha512"
    },
    "runtime.native.System/4.0.0": {
      "type": "package",
      "serviceable": true,
      "sha512": "sha512-QfS/nQI7k/BLgmLrw7qm7YBoULEvgWnPI+cYsbfCVFTW8Aj+i8JhccxcFMu1RWms0YZzF+UHguNBK4Qn89e2Sg==",
      "path": "runtime.native.system/4.0.0",
      "hashPath": "runtime.native.system.4.0.0.nupkg.sha512"
    },
    "sautinsoft.document/4.5.6.17": {
      "type": "package",
      "serviceable": true,
      "sha512": "sha512-4PuJKcZ61vqmGdVLjJehPyBiaFVydTJ8IcKyg6vTdHzmjk+Fekzp0RRM5DdkO/TxxDvtPdoe2oiRfkyqJgVNKA==",
      "path": "sautinsoft.document/4.5.6.17",
      "hashPath": "sautinsoft.document.4.5.6.17.nupkg.sha512"
    },
    "SharpCompress/0.23.0": {
      "type": "package",
      "serviceable": true,
      "sha512": "sha512-HBbT47JHvNrsZX2dTBzUBOSzBt+EmIRGLIBkbxcP6Jef7DB4eFWQX5iHWV3Nj7hABFPCjISrZ8s0z72nF2zFHQ==",
      "path": "sharpcompress/0.23.0",
      "hashPath": "sharpcompress.0.23.0.nupkg.sha512"
    },
    "Spire.PDF/6.8.5": {
      "type": "package",
      "serviceable": true,
      "sha512": "sha512-A35O7kqtuWHp7YSauL821aQ9GHx17ZkKfc26IzrSc7Nsq3arQ5CeMx864qRiUsAVEvzpHHH2lAyh3nnWUj4h4A==",
      "path": "spire.pdf/6.8.5",
      "hashPath": "spire.pdf.6.8.5.nupkg.sha512"
    },
    "Syncfusion.Compression.Base/18.2.0.54": {
      "type": "package",
      "serviceable": true,
      "sha512": "sha512-3xChHQzSvt9JdHrL05hxxeXgPJxHS2mZ8oSKBMgsdlT2F3RmfqIsa2nwGWdZyCqVtYUQ7RugxVQXk23zQ3KYWQ==",
      "path": "syncfusion.compression.base/18.2.0.54",
      "hashPath": "syncfusion.compression.base.18.2.0.54.nupkg.sha512"
    },
    "Syncfusion.Licensing/18.2.0.54": {
      "type": "package",
      "serviceable": true,
      "sha512": "sha512-xrf92qSI4E2B+HCHqolNqp+bAVgh1XGOq4NrciNP6rDMUBm0oS1mZtuxEwBLUE1FUMsngXxIR76t0SackRK/QQ==",
      "path": "syncfusion.licensing/18.2.0.54",
      "hashPath": "syncfusion.licensing.18.2.0.54.nupkg.sha512"
    },
    "Syncfusion.Linq.Base/18.2.0.54": {
      "type": "package",
      "serviceable": true,
      "sha512": "sha512-qk6+e7vFo9biwF+USwUQUOAHE9JTqjcZNwkL6knXxKdt6FNbHKNbDtMkTh5VEe3CvtwQGTDh81gH22sBv8we3Q==",
      "path": "syncfusion.linq.base/18.2.0.54",
      "hashPath": "syncfusion.linq.base.18.2.0.54.nupkg.sha512"
    },
    "Syncfusion.Pdf.Wpf/18.2.0.54": {
      "type": "package",
      "serviceable": true,
      "sha512": "sha512-fMqZ4dgsbV0LesizPuI+lQ0+0U207Q/4qyTfsFagfRUFPeRWo1hcyoWDtoyKfDoGn8iizfVfHzMC+nQE+M3ANQ==",
      "path": "syncfusion.pdf.wpf/18.2.0.54",
      "hashPath": "syncfusion.pdf.wpf.18.2.0.54.nupkg.sha512"
    },
    "Syncfusion.ReportWriter.Base/18.2.0.54": {
      "type": "package",
      "serviceable": true,
      "sha512": "sha512-QIRqbi1V7fcsYDd8XXoiPUxChiZIFRKgcDKJoKeN+3rD5Q1+zywcjoumvFIiZGxtymKACIvvpKDi9rCiqxuS2A==",
      "path": "syncfusion.reportwriter.base/18.2.0.54",
      "hashPath": "syncfusion.reportwriter.base.18.2.0.54.nupkg.sha512"
    },
    "Syncfusion.Shared.WPF/18.2.0.54": {
      "type": "package",
      "serviceable": true,
      "sha512": "sha512-kY7sblMynoYJDZkJjYdvS5SL6FphakNl0KOUAgUacFy9PLSvSUu8Vn4pJxfCaprtmrjNwu9L+GBP40wq6TYRqg==",
      "path": "syncfusion.shared.wpf/18.2.0.54",
      "hashPath": "syncfusion.shared.wpf.18.2.0.54.nupkg.sha512"
    },
    "Syncfusion.Xamarin.Compression/18.2.0.54": {
      "type": "package",
      "serviceable": true,
      "sha512": "sha512-ItfvZGL3NAxNP4Tk5xu9jxrkbZZN6lBZK0xaIM0cHlzJRdCKmUdppRHw5c3HtaLwIKmZx+enSVY0wUQCWNOgvA==",
      "path": "syncfusion.xamarin.compression/18.2.0.54",
      "hashPath": "syncfusion.xamarin.compression.18.2.0.54.nupkg.sha512"
    },
    "System.AppContext/4.1.0": {
      "type": "package",
      "serviceable": true,
      "sha512": "sha512-3QjO4jNV7PdKkmQAVp9atA+usVnKRwI3Kx1nMwJ93T0LcQfx7pKAYk0nKz5wn1oP5iqlhZuy6RXOFdhr7rDwow==",
      "path": "system.appcontext/4.1.0",
      "hashPath": "system.appcontext.4.1.0.nupkg.sha512"
    },
    "System.Buffers/4.4.0": {
      "type": "package",
      "serviceable": true,
      "sha512": "sha512-AwarXzzoDwX6BgrhjoJsk6tUezZEozOT5Y9QKF94Gl4JK91I4PIIBkBco9068Y9/Dra8Dkbie99kXB8+1BaYKw==",
      "path": "system.buffers/4.4.0",
      "hashPath": "system.buffers.4.4.0.nupkg.sha512"
    },
    "System.Collections/4.3.0": {
      "type": "package",
      "serviceable": true,
      "sha512": "sha512-3Dcj85/TBdVpL5Zr+gEEBUuFe2icOnLalmEh9hfck1PTYbbyWuZgh4fmm2ysCLTrqLQw6t3TgTyJ+VLp+Qb+Lw==",
      "path": "system.collections/4.3.0",
      "hashPath": "system.collections.4.3.0.nupkg.sha512"
    },
    "System.Configuration.ConfigurationManager/4.5.0": {
      "type": "package",
      "serviceable": true,
      "sha512": "sha512-UIFvaFfuKhLr9u5tWMxmVoDPkFeD+Qv8gUuap4aZgVGYSYMdERck4OhLN/2gulAc0nYTEigWXSJNNWshrmxnng==",
      "path": "system.configuration.configurationmanager/4.5.0",
      "hashPath": "system.configuration.configurationmanager.4.5.0.nupkg.sha512"
    },
    "System.Diagnostics.Debug/4.3.0": {
      "type": "package",
      "serviceable": true,
      "sha512": "sha512-ZUhUOdqmaG5Jk3Xdb8xi5kIyQYAA4PnTNlHx1mu9ZY3qv4ELIdKbnL/akbGaKi2RnNUWaZsAs31rvzFdewTj2g==",
      "path": "system.diagnostics.debug/4.3.0",
      "hashPath": "system.diagnostics.debug.4.3.0.nupkg.sha512"
    },
    "System.Diagnostics.PerformanceCounter/4.5.0": {
      "type": "package",
      "serviceable": true,
      "sha512": "sha512-JUO5/moXgchWZBMBElgmPebZPKCgwW8kY3dFwVJavaNR2ftcc/YjXXGjOaCjly2KBXT7Ld5l/GTkMVzNv41yZA==",
      "path": "system.diagnostics.performancecounter/4.5.0",
      "hashPath": "system.diagnostics.performancecounter.4.5.0.nupkg.sha512"
    },
    "System.Diagnostics.Tools/4.0.1": {
      "type": "package",
      "serviceable": true,
      "sha512": "sha512-xBfJ8pnd4C17dWaC9FM6aShzbJcRNMChUMD42I6772KGGrqaFdumwhn9OdM68erj1ueNo3xdQ1EwiFjK5k8p0g==",
      "path": "system.diagnostics.tools/4.0.1",
      "hashPath": "system.diagnostics.tools.4.0.1.nupkg.sha512"
    },
    "System.Drawing.Common/4.7.0": {
      "type": "package",
      "serviceable": true,
      "sha512": "sha512-v+XbyYHaZjDfn0ENmJEV1VYLgGgCTx1gnfOBcppowbpOAriglYgGCvFCPr2EEZyBvXlpxbEsTwkOlInl107ahA==",
      "path": "system.drawing.common/4.7.0",
      "hashPath": "system.drawing.common.4.7.0.nupkg.sha512"
    },
    "System.Dynamic.Runtime/4.0.11": {
      "type": "package",
      "serviceable": true,
      "sha512": "sha512-db34f6LHYM0U0JpE+sOmjar27BnqTVkbLJhgfwMpTdgTigG/Hna3m2MYVwnFzGGKnEJk2UXFuoVTr8WUbU91/A==",
      "path": "system.dynamic.runtime/4.0.11",
      "hashPath": "system.dynamic.runtime.4.0.11.nupkg.sha512"
    },
    "System.Globalization/4.3.0": {
      "type": "package",
      "serviceable": true,
      "sha512": "sha512-kYdVd2f2PAdFGblzFswE4hkNANJBKRmsfa2X5LG2AcWE1c7/4t0pYae1L8vfZ5xvE2nK/R9JprtToA61OSHWIg==",
      "path": "system.globalization/4.3.0",
      "hashPath": "system.globalization.4.3.0.nupkg.sha512"
    },
    "System.IO/4.3.0": {
      "type": "package",
      "serviceable": true,
      "sha512": "sha512-3qjaHvxQPDpSOYICjUoTsmoq5u6QJAFRUITgeT/4gqkF1bajbSmb1kwSxEA8AHlofqgcKJcM8udgieRNhaJ5Cg==",
      "path": "system.io/4.3.0",
      "hashPath": "system.io.4.3.0.nupkg.sha512"
    },
    "System.IO.FileSystem/4.3.0": {
      "type": "package",
      "serviceable": true,
      "sha512": "sha512-3wEMARTnuio+ulnvi+hkRNROYwa1kylvYahhcLk4HSoVdl+xxTFVeVlYOfLwrDPImGls0mDqbMhrza8qnWPTdA==",
      "path": "system.io.filesystem/4.3.0",
      "hashPath": "system.io.filesystem.4.3.0.nupkg.sha512"
    },
    "System.IO.FileSystem.Primitives/4.3.0": {
      "type": "package",
      "serviceable": true,
      "sha512": "sha512-6QOb2XFLch7bEc4lIcJH49nJN2HV+OC3fHDgsLVsBVBk3Y4hFAnOBGzJ2lUu7CyDDFo9IBWkSsnbkT6IBwwiMw==",
      "path": "system.io.filesystem.primitives/4.3.0",
      "hashPath": "system.io.filesystem.primitives.4.3.0.nupkg.sha512"
    },
    "System.IO.Packaging/4.4.0": {
      "type": "package",
      "serviceable": true,
      "sha512": "sha512-6Ks0U3YAW5UYGp4jxSwXCHuxHBk7ZmBfCJFhmpvn8jWIOPgXomz2Vd4PYxhaJIDchAcaYRO46Zc/TsqsYSuxhQ==",
      "path": "system.io.packaging/4.4.0",
      "hashPath": "system.io.packaging.4.4.0.nupkg.sha512"
    },
    "System.Linq/4.1.0": {
      "type": "package",
      "serviceable": true,
      "sha512": "sha512-bQ0iYFOQI0nuTnt+NQADns6ucV4DUvMdwN6CbkB1yj8i7arTGiTN5eok1kQwdnnNWSDZfIUySQY+J3d5KjWn0g==",
      "path": "system.linq/4.1.0",
      "hashPath": "system.linq.4.1.0.nupkg.sha512"
    },
    "System.Linq.Expressions/4.1.0": {
      "type": "package",
      "serviceable": true,
      "sha512": "sha512-I+y02iqkgmCAyfbqOmSDOgqdZQ5tTj80Akm5BPSS8EeB0VGWdy6X1KCoYe8Pk6pwDoAKZUOdLVxnTJcExiv5zw==",
      "path": "system.linq.expressions/4.1.0",
      "hashPath": "system.linq.expressions.4.1.0.nupkg.sha512"
    },
    "System.ObjectModel/4.0.12": {
      "type": "package",
      "serviceable": true,
      "sha512": "sha512-tAgJM1xt3ytyMoW4qn4wIqgJYm7L7TShRZG4+Q4Qsi2PCcj96pXN7nRywS9KkB3p/xDUjc2HSwP9SROyPYDYKQ==",
      "path": "system.objectmodel/4.0.12",
      "hashPath": "system.objectmodel.4.0.12.nupkg.sha512"
    },
    "System.Private.ServiceModel/4.5.3": {
      "type": "package",
      "serviceable": true,
      "sha512": "sha512-ancrQgJagx+yC4SZbuE+eShiEAUIF0E1d21TRSoy1C/rTwafAVcBr/fKibkq5TQzyy9uNil2tx2/iaUxsy0S9g==",
      "path": "system.private.servicemodel/4.5.3",
      "hashPath": "system.private.servicemodel.4.5.3.nupkg.sha512"
    },
    "System.Reflection/4.3.0": {
      "type": "package",
      "serviceable": true,
      "sha512": "sha512-KMiAFoW7MfJGa9nDFNcfu+FpEdiHpWgTcS2HdMpDvt9saK3y/G4GwprPyzqjFH9NTaGPQeWNHU+iDlDILj96aQ==",
      "path": "system.reflection/4.3.0",
      "hashPath": "system.reflection.4.3.0.nupkg.sha512"
    },
    "System.Reflection.DispatchProxy/4.5.0": {
      "type": "package",
      "serviceable": true,
      "sha512": "sha512-+UW1hq11TNSeb+16rIk8hRQ02o339NFyzMc4ma/FqmxBzM30l1c2IherBB4ld1MNcenS48fz8tbt50OW4rVULA==",
      "path": "system.reflection.dispatchproxy/4.5.0",
      "hashPath": "system.reflection.dispatchproxy.4.5.0.nupkg.sha512"
    },
    "System.Reflection.Emit/4.0.1": {
      "type": "package",
      "serviceable": true,
      "sha512": "sha512-P2wqAj72fFjpP6wb9nSfDqNBMab+2ovzSDzUZK7MVIm54tBJEPr9jWfSjjoTpPwj1LeKcmX3vr0ttyjSSFM47g==",
      "path": "system.reflection.emit/4.0.1",
      "hashPath": "system.reflection.emit.4.0.1.nupkg.sha512"
    },
    "System.Reflection.Emit.ILGeneration/4.0.1": {
      "type": "package",
      "serviceable": true,
      "sha512": "sha512-Ov6dU8Bu15Bc7zuqttgHF12J5lwSWyTf1S+FJouUXVMSqImLZzYaQ+vRr1rQ0OZ0HqsrwWl4dsKHELckQkVpgA==",
      "path": "system.reflection.emit.ilgeneration/4.0.1",
      "hashPath": "system.reflection.emit.ilgeneration.4.0.1.nupkg.sha512"
    },
    "System.Reflection.Emit.Lightweight/4.0.1": {
      "type": "package",
      "serviceable": true,
      "sha512": "sha512-sSzHHXueZ5Uh0OLpUQprhr+ZYJrLPA2Cmr4gn0wj9+FftNKXx8RIMKvO9qnjk2ebPYUjZ+F2ulGdPOsvj+MEjA==",
      "path": "system.reflection.emit.lightweight/4.0.1",
      "hashPath": "system.reflection.emit.lightweight.4.0.1.nupkg.sha512"
    },
    "System.Reflection.Extensions/4.0.1": {
      "type": "package",
      "serviceable": true,
      "sha512": "sha512-GYrtRsZcMuHF3sbmRHfMYpvxZoIN2bQGrYGerUiWLEkqdEUQZhH3TRSaC/oI4wO0II1RKBPlpIa1TOMxIcOOzQ==",
      "path": "system.reflection.extensions/4.0.1",
      "hashPath": "system.reflection.extensions.4.0.1.nupkg.sha512"
    },
    "System.Reflection.Primitives/4.3.0": {
      "type": "package",
      "serviceable": true,
      "sha512": "sha512-5RXItQz5As4xN2/YUDxdpsEkMhvw3e6aNveFXUn4Hl/udNTCNhnKp8lT9fnc3MhvGKh1baak5CovpuQUXHAlIA==",
      "path": "system.reflection.primitives/4.3.0",
      "hashPath": "system.reflection.primitives.4.3.0.nupkg.sha512"
    },
    "System.Reflection.TypeExtensions/4.1.0": {
      "type": "package",
      "serviceable": true,
      "sha512": "sha512-tsQ/ptQ3H5FYfON8lL4MxRk/8kFyE0A+tGPXmVP967cT/gzLHYxIejIYSxp4JmIeFHVP78g/F2FE1mUUTbDtrg==",
      "path": "system.reflection.typeextensions/4.1.0",
      "hashPath": "system.reflection.typeextensions.4.1.0.nupkg.sha512"
    },
    "System.Resources.ResourceManager/4.3.0": {
      "type": "package",
      "serviceable": true,
      "sha512": "sha512-/zrcPkkWdZmI4F92gL/TPumP98AVDu/Wxr3CSJGQQ+XN6wbRZcyfSKVoPo17ilb3iOr0cCRqJInGwNMolqhS8A==",
      "path": "system.resources.resourcemanager/4.3.0",
      "hashPath": "system.resources.resourcemanager.4.3.0.nupkg.sha512"
    },
    "System.Runtime/4.3.0": {
      "type": "package",
      "serviceable": true,
      "sha512": "sha512-JufQi0vPQ0xGnAczR13AUFglDyVYt4Kqnz1AZaiKZ5+GICq0/1MH/mO/eAJHt/mHW1zjKBJd7kV26SrxddAhiw==",
      "path": "system.runtime/4.3.0",
      "hashPath": "system.runtime.4.3.0.nupkg.sha512"
    },
    "System.Runtime.Extensions/4.3.0": {
      "type": "package",
      "serviceable": true,
      "sha512": "sha512-guW0uK0fn5fcJJ1tJVXYd7/1h5F+pea1r7FLSOz/f8vPEqbR2ZAknuRDvTQ8PzAilDveOxNjSfr0CHfIQfFk8g==",
      "path": "system.runtime.extensions/4.3.0",
      "hashPath": "system.runtime.extensions.4.3.0.nupkg.sha512"
    },
    "System.Runtime.Handles/4.3.0": {
      "type": "package",
      "serviceable": true,
      "sha512": "sha512-OKiSUN7DmTWeYb3l51A7EYaeNMnvxwE249YtZz7yooT4gOZhmTjIn48KgSsw2k2lYdLgTKNJw/ZIfSElwDRVgg==",
      "path": "system.runtime.handles/4.3.0",
      "hashPath": "system.runtime.handles.4.3.0.nupkg.sha512"
    },
    "System.Runtime.InteropServices/4.3.0": {
      "type": "package",
      "serviceable": true,
      "sha512": "sha512-uv1ynXqiMK8mp1GM3jDqPCFN66eJ5w5XNomaK2XD+TuCroNTLFGeZ+WCmBMcBDyTFKou3P6cR6J/QsaqDp7fGQ==",
      "path": "system.runtime.interopservices/4.3.0",
      "hashPath": "system.runtime.interopservices.4.3.0.nupkg.sha512"
    },
    "System.Runtime.InteropServices.RuntimeInformation/4.0.0": {
      "type": "package",
      "serviceable": true,
      "sha512": "sha512-hWPhJxc453RCa8Z29O91EmfGeZIHX1ZH2A8L6lYQVSaKzku2DfArSfMEb1/MYYzPQRJZeu0c9dmYeJKxW5Fgng==",
      "path": "system.runtime.interopservices.runtimeinformation/4.0.0",
      "hashPath": "system.runtime.interopservices.runtimeinformation.4.0.0.nupkg.sha512"
    },
    "System.Runtime.Serialization.Primitives/4.1.1": {
      "type": "package",
      "serviceable": true,
      "sha512": "sha512-HZ6Du5QrTG8MNJbf4e4qMO3JRAkIboGT5Fk804uZtg3Gq516S7hAqTm2UZKUHa7/6HUGdVy3AqMQKbns06G/cg==",
      "path": "system.runtime.serialization.primitives/4.1.1",
      "hashPath": "system.runtime.serialization.primitives.4.1.1.nupkg.sha512"
    },
    "System.Security.AccessControl/4.5.0": {
      "type": "package",
      "serviceable": true,
      "sha512": "sha512-vW8Eoq0TMyz5vAG/6ce483x/CP83fgm4SJe5P8Tb1tZaobcvPrbMEL7rhH1DRdrYbbb6F0vq3OlzmK0Pkwks5A==",
      "path": "system.security.accesscontrol/4.5.0",
      "hashPath": "system.security.accesscontrol.4.5.0.nupkg.sha512"
    },
    "System.Security.Cryptography.Cng/4.7.0": {
      "type": "package",
      "serviceable": true,
      "sha512": "sha512-4WQjFuypWtxb/bl/YwEE7LYGn4fgpsikFfBU6xwEm4YBYiRAhXAEJ62lILBu2JJSFbClIAntFTGfDZafn8yZTg==",
      "path": "system.security.cryptography.cng/4.7.0",
      "hashPath": "system.security.cryptography.cng.4.7.0.nupkg.sha512"
    },
    "System.Security.Cryptography.Pkcs/4.7.0": {
      "type": "package",
      "serviceable": true,
      "sha512": "sha512-0Srzh6YlhjuMxaqMyeCCdZs22cucaUAG6SKDd3gNHBJmre0VZ71ekzWu9rvLD4YXPetyNdPvV6Qst+8C++9v3Q==",
      "path": "system.security.cryptography.pkcs/4.7.0",
      "hashPath": "system.security.cryptography.pkcs.4.7.0.nupkg.sha512"
    },
    "System.Security.Cryptography.ProtectedData/4.5.0": {
      "type": "package",
      "serviceable": true,
      "sha512": "sha512-wLBKzFnDCxP12VL9ANydSYhk59fC4cvOr9ypYQLPnAj48NQIhqnjdD2yhP8yEKyBJEjERWS9DisKL7rX5eU25Q==",
      "path": "system.security.cryptography.protecteddata/4.5.0",
      "hashPath": "system.security.cryptography.protecteddata.4.5.0.nupkg.sha512"
    },
    "System.Security.Permissions/4.5.0": {
      "type": "package",
      "serviceable": true,
      "sha512": "sha512-9gdyuARhUR7H+p5CjyUB/zPk7/Xut3wUSP8NJQB6iZr8L3XUXTMdoLeVAg9N4rqF8oIpE7MpdqHdDHQ7XgJe0g==",
      "path": "system.security.permissions/4.5.0",
      "hashPath": "system.security.permissions.4.5.0.nupkg.sha512"
    },
    "System.Security.Principal.Windows/4.5.0": {
      "type": "package",
      "serviceable": true,
      "sha512": "sha512-U77HfRXlZlOeIXd//Yoj6Jnk8AXlbeisf1oq1os+hxOGVnuG+lGSfGqTwTZBoORFF6j/0q7HXIl8cqwQ9aUGqQ==",
      "path": "system.security.principal.windows/4.5.0",
      "hashPath": "system.security.principal.windows.4.5.0.nupkg.sha512"
    },
    "System.ServiceModel.Primitives/4.5.3": {
      "type": "package",
      "serviceable": true,
      "sha512": "sha512-Wc9Hgg4Cmqi416zvEgq2sW1YYCGuhwWzspDclJWlFZqY6EGhFUPZU+kVpl5z9kAgrSOQP7/Uiik+PtSQtmq+5A==",
      "path": "system.servicemodel.primitives/4.5.3",
      "hashPath": "system.servicemodel.primitives.4.5.3.nupkg.sha512"
    },
    "System.Text.Encoding/4.3.0": {
      "type": "package",
      "serviceable": true,
      "sha512": "sha512-BiIg+KWaSDOITze6jGQynxg64naAPtqGHBwDrLaCtixsa5bKiR8dpPOHA7ge3C0JJQizJE+sfkz1wV+BAKAYZw==",
      "path": "system.text.encoding/4.3.0",
      "hashPath": "system.text.encoding.4.3.0.nupkg.sha512"
    },
    "System.Text.Encoding.CodePages/4.7.0": {
      "type": "package",
      "serviceable": true,
      "sha512": "sha512-aeu4FlaUTemuT1qOd1MyU4T516QR4Fy+9yDbwWMPHOHy7U8FD6SgTzdZFO7gHcfAPHtECqInbwklVvUK4RHcNg==",
      "path": "system.text.encoding.codepages/4.7.0",
      "hashPath": "system.text.encoding.codepages.4.7.0.nupkg.sha512"
    },
    "System.Text.Encoding.Extensions/4.3.0": {
      "type": "package",
      "serviceable": true,
      "sha512": "sha512-YVMK0Bt/A43RmwizJoZ22ei2nmrhobgeiYwFzC4YAN+nue8RF6djXDMog0UCn+brerQoYVyaS+ghy9P/MUVcmw==",
      "path": "system.text.encoding.extensions/4.3.0",
      "hashPath": "system.text.encoding.extensions.4.3.0.nupkg.sha512"
    },
    "System.Text.RegularExpressions/4.3.0": {
      "type": "package",
      "serviceable": true,
      "sha512": "sha512-RpT2DA+L660cBt1FssIE9CAGpLFdFPuheB7pLpKpn6ZXNby7jDERe8Ua/Ne2xGiwLVG2JOqziiaVCGDon5sKFA==",
      "path": "system.text.regularexpressions/4.3.0",
      "hashPath": "system.text.regularexpressions.4.3.0.nupkg.sha512"
    },
    "System.Threading/4.3.0": {
      "type": "package",
      "serviceable": true,
      "sha512": "sha512-VkUS0kOBcUf3Wwm0TSbrevDDZ6BlM+b/HRiapRFWjM5O0NS0LviG0glKmFK+hhPDd1XFeSdU1GmlLhb2CoVpIw==",
      "path": "system.threading/4.3.0",
      "hashPath": "system.threading.4.3.0.nupkg.sha512"
    },
    "System.Threading.Tasks/4.3.0": {
      "type": "package",
      "serviceable": true,
      "sha512": "sha512-LbSxKEdOUhVe8BezB/9uOGGppt+nZf6e1VFyw6v3DN6lqitm0OSn2uXMOdtP0M3W4iMcqcivm2J6UgqiwwnXiA==",
      "path": "system.threading.tasks/4.3.0",
      "hashPath": "system.threading.tasks.4.3.0.nupkg.sha512"
    },
    "System.Threading.Tasks.Extensions/4.3.0": {
      "type": "package",
      "serviceable": true,
      "sha512": "sha512-npvJkVKl5rKXrtl1Kkm6OhOUaYGEiF9wFbppFRWSMoApKzt2PiPHT2Bb8a5sAWxprvdOAtvaARS9QYMznEUtug==",
      "path": "system.threading.tasks.extensions/4.3.0",
      "hashPath": "system.threading.tasks.extensions.4.3.0.nupkg.sha512"
    },
    "System.Xml.ReaderWriter/4.3.0": {
      "type": "package",
      "serviceable": true,
      "sha512": "sha512-GrprA+Z0RUXaR4N7/eW71j1rgMnEnEVlgii49GZyAjTH7uliMnrOU3HNFBr6fEDBCJCIdlVNq9hHbaDR621XBA==",
      "path": "system.xml.readerwriter/4.3.0",
      "hashPath": "system.xml.readerwriter.4.3.0.nupkg.sha512"
    },
    "System.Xml.XDocument/4.0.11": {
      "type": "package",
      "serviceable": true,
      "sha512": "sha512-Mk2mKmPi0nWaoiYeotq1dgeNK1fqWh61+EK+w4Wu8SWuTYLzpUnschb59bJtGywaPq7SmTuPf44wrXRwbIrukg==",
      "path": "system.xml.xdocument/4.0.11",
      "hashPath": "system.xml.xdocument.4.0.11.nupkg.sha512"
    },
    "System.Xml.XmlDocument/4.3.0": {
      "type": "package",
      "serviceable": true,
      "sha512": "sha512-lJ8AxvkX7GQxpC6GFCeBj8ThYVyQczx2+f/cWHJU8tjS7YfI6Cv6bon70jVEgs2CiFbmmM8b9j1oZVx0dSI2Ww==",
      "path": "system.xml.xmldocument/4.3.0",
      "hashPath": "system.xml.xmldocument.4.3.0.nupkg.sha512"
    },
    "System.Xml.XPath/4.3.0": {
      "type": "package",
      "serviceable": true,
      "sha512": "sha512-v1JQ5SETnQusqmS3RwStF7vwQ3L02imIzl++sewmt23VGygix04pEH+FCj1yWb+z4GDzKiljr1W7Wfvrx0YwgA==",
      "path": "system.xml.xpath/4.3.0",
      "hashPath": "system.xml.xpath.4.3.0.nupkg.sha512"
    },
    "System.Xml.XPath.XmlDocument/4.3.0": {
      "type": "package",
      "serviceable": true,
      "sha512": "sha512-A/uxsWi/Ifzkmd4ArTLISMbfFs6XpRPsXZonrIqyTY70xi8t+mDtvSM5Os0RqyRDobjMBwIDHDL4NOIbkDwf7A==",
      "path": "system.xml.xpath.xmldocument/4.3.0",
      "hashPath": "system.xml.xpath.xmldocument.4.3.0.nupkg.sha512"
    },
    "Comunications/1.0.0": {
      "type": "project",
      "serviceable": false,
      "sha512": ""
    }
  }
}